[
    {
        "ID": "1",
        "Ta'lim turi": "Б",
        "Yonalishkodi": "5110100",
        "Yonalishmutaxassisliknomi": "Методика преподавания математики"
    },
    {
        "ID": "2",
        "Ta'lim turi": "Б",
        "Yonalishkodi": "5110400",
        "Yonalishmutaxassisliknomi": "Методика преподавания биологии"
    },
    {
        "ID": "3",
        "Ta'lim turi": "Б",
        "Yonalishkodi": "5110500",
        "Yonalishmutaxassisliknomi": "География и методика преподавания"
    },
    {
        "ID": "4",
        "Ta'lim turi": "Б",
        "Yonalishkodi": "5110600",
        "Yonalishmutaxassisliknomi": "Методика преподавания истории"
    },
    {
        "ID": "5",
        "Ta'lim turi": "Б",
        "Yonalishkodi": "5110800",
        "Yonalishmutaxassisliknomi": "Изобразительное искусство и инженерная графика"
    },
    {
        "ID": "6",
        "Ta'lim turi": "Б",
        "Yonalishkodi": "5110900",
        "Yonalishmutaxassisliknomi": "Педагогика и психология"
    },
    {
        "ID": "7",
        "Ta'lim turi": "Б",
        "Yonalishkodi": "5111000",
        "Yonalishmutaxassisliknomi": "Профессиональное образование (по направлениям)"
    },
    {
        "ID": "8",
        "Ta'lim turi": "Б",
        "Yonalishkodi": "5111100",
        "Yonalishmutaxassisliknomi": "Музыкальное образование"
    },
    {
        "ID": "9",
        "Ta'lim turi": "Б",
        "Yonalishkodi": "5111200",
        "Yonalishmutaxassisliknomi": "Узбекский язык и литература"
    },
    {
        "ID": "10",
        "Ta'lim turi": "Б",
        "Yonalishkodi": "5111600",
        "Yonalishmutaxassisliknomi": "Национальная идея, основы духовности и правовое образование"
    },
    {
        "ID": "11",
        "Ta'lim turi": "Б",
        "Yonalishkodi": "5111700",
        "Yonalishmutaxassisliknomi": "Начальное образование и спортивно-воспитательная работа"
    },
    {
        "ID": "12",
        "Ta'lim turi": "Б",
        "Yonalishkodi": "5111800",
        "Yonalishmutaxassisliknomi": "Дошкольное образование"
    },
    {
        "ID": "13",
        "Ta'lim turi": "Б",
        "Yonalishkodi": "5112000",
        "Yonalishmutaxassisliknomi": "Физическая культура"
    },
    {
        "ID": "14",
        "Ta'lim turi": "Б",
        "Yonalishkodi": "5112100",
        "Yonalishmutaxassisliknomi": "Технологическое образование"
    },
    {
        "ID": "15",
        "Ta'lim turi": "Б",
        "Yonalishkodi": "5112300",
        "Yonalishmutaxassisliknomi": "Физкультура и спорт в дошкольном и начальном образовании"
    },
    {
        "ID": "16",
        "Ta'lim turi": "Б",
        "Yonalishkodi": "5120100",
        "Yonalishmutaxassisliknomi": "Филология и обучение языкам (по языкам)"
    },
    {
        "ID": "17",
        "Ta'lim turi": "Б",
        "Yonalishkodi": "5120300",
        "Yonalishmutaxassisliknomi": "История (по странам и регионам)"
    },
    {
        "ID": "18",
        "Ta'lim turi": "Б",
        "Yonalishkodi": "5120500",
        "Yonalishmutaxassisliknomi": "Философия"
    },
    {
        "ID": "19",
        "Ta'lim turi": "Б",
        "Yonalishkodi": "5130100",
        "Yonalishmutaxassisliknomi": "Математика"
    },
    {
        "ID": "20",
        "Ta'lim turi": "Б",
        "Yonalishkodi": "5140100",
        "Yonalishmutaxassisliknomi": "Биология (по видам)"
    },
    {
        "ID": "21",
        "Ta'lim turi": "Б",
        "Yonalishkodi": "5140600",
        "Yonalishmutaxassisliknomi": "География"
    },
    {
        "ID": "22",
        "Ta'lim turi": "Б",
        "Yonalishkodi": "5140700",
        "Yonalishmutaxassisliknomi": "Гидрометеорология"
    },
    {
        "ID": "23",
        "Ta'lim turi": "Б",
        "Yonalishkodi": "5140800",
        "Yonalishmutaxassisliknomi": "Геология"
    },
    {
        "ID": "24",
        "Ta'lim turi": "Б",
        "Yonalishkodi": "5141000",
        "Yonalishmutaxassisliknomi": "Почвоведение"
    },
    {
        "ID": "25",
        "Ta'lim turi": "Б",
        "Yonalishkodi": "5150200",
        "Yonalishmutaxassisliknomi": "Искусствоведение (по видам)"
    },
    {
        "ID": "26",
        "Ta'lim turi": "Б",
        "Yonalishkodi": "5150300",
        "Yonalishmutaxassisliknomi": "Актерское искусство (по видам)"
    },
    {
        "ID": "27",
        "Ta'lim turi": "Б",
        "Yonalishkodi": "5150400",
        "Yonalishmutaxassisliknomi": "Режиссура (по видам)"
    },
    {
        "ID": "28",
        "Ta'lim turi": "Б",
        "Yonalishkodi": "5150900",
        "Yonalishmutaxassisliknomi": "Дизайн (по видам)"
    },
    {
        "ID": "29",
        "Ta'lim turi": "Б",
        "Yonalishkodi": "5151300",
        "Yonalishmutaxassisliknomi": "Хореография (по видам)"
    },
    {
        "ID": "30",
        "Ta'lim turi": "Б",
        "Yonalishkodi": "5151400",
        "Yonalishmutaxassisliknomi": "Техногенное искусство (музыкальная звуковая режиссура)"
    },
    {
        "ID": "31",
        "Ta'lim turi": "Б",
        "Yonalishkodi": "5151500",
        "Yonalishmutaxassisliknomi": "Кино-телеоператорство"
    },
    {
        "ID": "32",
        "Ta'lim turi": "Б",
        "Yonalishkodi": "5151600",
        "Yonalishmutaxassisliknomi": "Народное творчество (по видам)"
    },
    {
        "ID": "33",
        "Ta'lim turi": "Б",
        "Yonalishkodi": "5151700",
        "Yonalishmutaxassisliknomi": "Организация и управление учреждениями культуры и искусства"
    },
    {
        "ID": "34",
        "Ta'lim turi": "Б",
        "Yonalishkodi": "5210100",
        "Yonalishmutaxassisliknomi": "Социология"
    },
    {
        "ID": "35",
        "Ta'lim turi": "Б",
        "Yonalishkodi": "5210200",
        "Yonalishmutaxassisliknomi": "Психология (по видам деятельности)"
    },
    {
        "ID": "36",
        "Ta'lim turi": "Б",
        "Yonalishkodi": "5210300",
        "Yonalishmutaxassisliknomi": "Политология"
    },
    {
        "ID": "37",
        "Ta'lim turi": "Б",
        "Yonalishkodi": "5220100",
        "Yonalishmutaxassisliknomi": "Журналистика (по видам деятельности)"
    },
    {
        "ID": "38",
        "Ta'lim turi": "Б",
        "Yonalishkodi": "5220200",
        "Yonalishmutaxassisliknomi": "Информационная служба и работа с общественностью"
    },
    {
        "ID": "39",
        "Ta'lim turi": "Б",
        "Yonalishkodi": "5220300",
        "Yonalishmutaxassisliknomi": "Арихивирование"
    },
    {
        "ID": "40",
        "Ta'lim turi": "Б",
        "Yonalishkodi": "5230100",
        "Yonalishmutaxassisliknomi": "Экономика (по отраслям и сферам)"
    },
    {
        "ID": "41",
        "Ta'lim turi": "Б",
        "Yonalishkodi": "5230200",
        "Yonalishmutaxassisliknomi": "Менеджмент (по отраслям и сферам)"
    },
    {
        "ID": "42",
        "Ta'lim turi": "Б",
        "Yonalishkodi": "5230400",
        "Yonalishmutaxassisliknomi": "Маркетинг (по отраслям и сферам)"
    },
    {
        "ID": "43",
        "Ta'lim turi": "Б",
        "Yonalishkodi": "5230600",
        "Yonalishmutaxassisliknomi": "Финансы"
    },
    {
        "ID": "44",
        "Ta'lim turi": "Б",
        "Yonalishkodi": "5230700",
        "Yonalishmutaxassisliknomi": "Банковское дело"
    },
    {
        "ID": "45",
        "Ta'lim turi": "Б",
        "Yonalishkodi": "5230800",
        "Yonalishmutaxassisliknomi": "Налоги и налогообложение"
    },
    {
        "ID": "46",
        "Ta'lim turi": "Б",
        "Yonalishkodi": "5230900",
        "Yonalishmutaxassisliknomi": "Бухгалтерский учёт и аудит (по отраслям)"
    },
    {
        "ID": "47",
        "Ta'lim turi": "Б",
        "Yonalishkodi": "5231000",
        "Yonalishmutaxassisliknomi": "Экономика зарубежных стран и страноведение (по странам и регионам)"
    },
    {
        "ID": "48",
        "Ta'lim turi": "Б",
        "Yonalishkodi": "5231200",
        "Yonalishmutaxassisliknomi": "Страховое дело"
    },
    {
        "ID": "49",
        "Ta'lim turi": "Б",
        "Yonalishkodi": "5231600",
        "Yonalishmutaxassisliknomi": "Трудовая экономика и социология"
    },
    {
        "ID": "50",
        "Ta'lim turi": "Б",
        "Yonalishkodi": "5232400",
        "Yonalishmutaxassisliknomi": "Экономическая безопасность"
    },
    {
        "ID": "51",
        "Ta'lim turi": "Б",
        "Yonalishkodi": "5232500",
        "Yonalishmutaxassisliknomi": "Логистика"
    },
    {
        "ID": "52",
        "Ta'lim turi": "Б",
        "Yonalishkodi": "5232800",
        "Yonalishmutaxassisliknomi": "Электронная коммерция"
    },
    {
        "ID": "53",
        "Ta'lim turi": "Б",
        "Yonalishkodi": "5233000",
        "Yonalishmutaxassisliknomi": "Организация и управление водным хозяйством"
    },
    {
        "ID": "54",
        "Ta'lim turi": "Б",
        "Yonalishkodi": "5310100",
        "Yonalishmutaxassisliknomi": "Энергетика (по отраслям)"
    },
    {
        "ID": "55",
        "Ta'lim turi": "Б",
        "Yonalishkodi": "5310200",
        "Yonalishmutaxassisliknomi": "Электрическая энергетика (по отраслям и направлениям)"
    },
    {
        "ID": "56",
        "Ta'lim turi": "Б",
        "Yonalishkodi": "5310300",
        "Yonalishmutaxassisliknomi": "Металлургия"
    },
    {
        "ID": "57",
        "Ta'lim turi": "Б",
        "Yonalishkodi": "5310500",
        "Yonalishmutaxassisliknomi": "Автомобилестроение и тракторостроение"
    },
    {
        "ID": "58",
        "Ta'lim turi": "Б",
        "Yonalishkodi": "5310600",
        "Yonalishmutaxassisliknomi": "Наземные транспортные системы и их эксплуатация (по видам транспорта)"
    },
    {
        "ID": "59",
        "Ta'lim turi": "Б",
        "Yonalishkodi": "5310700",
        "Yonalishmutaxassisliknomi": "Электротехника, электромеханика и электротехнологии (по отраслям)"
    },
    {
        "ID": "60",
        "Ta'lim turi": "Б",
        "Yonalishkodi": "5310900",
        "Yonalishmutaxassisliknomi": "Метрология, стандартизация и менеджмент качеством продукции (по отраслям)"
    },
    {
        "ID": "61",
        "Ta'lim turi": "Б",
        "Yonalishkodi": "5311000",
        "Yonalishmutaxassisliknomi": "Автоматизация и управление технологическими процессами и производством (по отраслям)"
    },
    {
        "ID": "62",
        "Ta'lim turi": "Б",
        "Yonalishkodi": "5311500",
        "Yonalishmutaxassisliknomi": "Геодезия, картография и кадастр (по функциям)"
    },
    {
        "ID": "63",
        "Ta'lim turi": "Б",
        "Yonalishkodi": "5311600",
        "Yonalishmutaxassisliknomi": "Горнорудное дело (по видам деятельности)"
    },
    {
        "ID": "64",
        "Ta'lim turi": "Б",
        "Yonalishkodi": "5311700",
        "Yonalishmutaxassisliknomi": "Геология, изыскание и разведка месторождений полезных ископаемых (по рудниковым видам)"
    },
    {
        "ID": "65",
        "Ta'lim turi": "Б",
        "Yonalishkodi": "5311900",
        "Yonalishmutaxassisliknomi": "Запуск и эксплуатация нефтяных и газовых месторождений"
    },
    {
        "ID": "66",
        "Ta'lim turi": "Б",
        "Yonalishkodi": "5312100",
        "Yonalishmutaxassisliknomi": "Энергоаудит и энергетическая проверка промышленных предприятий"
    },
    {
        "ID": "67",
        "Ta'lim turi": "Б",
        "Yonalishkodi": "5312200",
        "Yonalishmutaxassisliknomi": "Горнорудная электрическая механика"
    },
    {
        "ID": "68",
        "Ta'lim turi": "Б",
        "Yonalishkodi": "5312400",
        "Yonalishmutaxassisliknomi": "Альтернативные источники энергии (по видам)"
    },
    {
        "ID": "69",
        "Ta'lim turi": "Б",
        "Yonalishkodi": "5313400",
        "Yonalishmutaxassisliknomi": "Геодезия и геоинформатика"
    },
    {
        "ID": "70",
        "Ta'lim turi": "Б",
        "Yonalishkodi": "5314000",
        "Yonalishmutaxassisliknomi": "Авиастроительство"
    },
    {
        "ID": "71",
        "Ta'lim turi": "Б",
        "Yonalishkodi": "5320100",
        "Yonalishmutaxassisliknomi": "Материаловедение и технология новых материалов (по отраслям)"
    },
    {
        "ID": "72",
        "Ta'lim turi": "Б",
        "Yonalishkodi": "5320200",
        "Yonalishmutaxassisliknomi": "Машиностроительная технология, оборудование и автоматизация машиностроительного производства"
    },
    {
        "ID": "73",
        "Ta'lim turi": "Б",
        "Yonalishkodi": "5320300",
        "Yonalishmutaxassisliknomi": "Технологические машины и оборудования (по отраслям)"
    },
    {
        "ID": "74",
        "Ta'lim turi": "Б",
        "Yonalishkodi": "5320400",
        "Yonalishmutaxassisliknomi": "Химическая технология (по видам производства)"
    },
    {
        "ID": "75",
        "Ta'lim turi": "Б",
        "Yonalishkodi": "5320800",
        "Yonalishmutaxassisliknomi": "Технология полиграфических и упаковочных процессов"
    },
    {
        "ID": "76",
        "Ta'lim turi": "Б",
        "Yonalishkodi": "5320900",
        "Yonalishmutaxassisliknomi": "Конструирование и технология изделий легкой промышленности (по видам производства)"
    },
    {
        "ID": "77",
        "Ta'lim turi": "Б",
        "Yonalishkodi": "5321000",
        "Yonalishmutaxassisliknomi": "Пищевая технология (по видам продукции)"
    },
    {
        "ID": "78",
        "Ta'lim turi": "Б",
        "Yonalishkodi": "5321200",
        "Yonalishmutaxassisliknomi": "Технология предварительной переработки натуральных волокон (по видам сырья)"
    },
    {
        "ID": "79",
        "Ta'lim turi": "Б",
        "Yonalishkodi": "5321300",
        "Yonalishmutaxassisliknomi": "Технология переработки нефти и газа"
    },
    {
        "ID": "80",
        "Ta'lim turi": "Б",
        "Yonalishkodi": "5321400",
        "Yonalishmutaxassisliknomi": "Технология промышленности нефти-газа химии"
    },
    {
        "ID": "81",
        "Ta'lim turi": "Б",
        "Yonalishkodi": "5321500",
        "Yonalishmutaxassisliknomi": "Технологии и оборудования (по отраслям)"
    },
    {
        "ID": "82",
        "Ta'lim turi": "Б",
        "Yonalishkodi": "5321700",
        "Yonalishmutaxassisliknomi": "Информационно-коммуникационные системы управления технологическими процессами"
    },
    {
        "ID": "83",
        "Ta'lim turi": "Б",
        "Yonalishkodi": "5322100",
        "Yonalishmutaxassisliknomi": "Технология производства проката"
    },
    {
        "ID": "84",
        "Ta'lim turi": "Б",
        "Yonalishkodi": "5322700",
        "Yonalishmutaxassisliknomi": "Технология консервирования"
    },
    {
        "ID": "85",
        "Ta'lim turi": "Б",
        "Yonalishkodi": "5322800",
        "Yonalishmutaxassisliknomi": "Функциональное питание и технология производства детских продуктов"
    },
    {
        "ID": "86",
        "Ta'lim turi": "Б",
        "Yonalishkodi": "5330200",
        "Yonalishmutaxassisliknomi": "Информатика и информационные технологии (по отраслям и сферам)"
    },
    {
        "ID": "87",
        "Ta'lim turi": "Б",
        "Yonalishkodi": "5330300",
        "Yonalishmutaxassisliknomi": "Информационная безопасность (по сферам)"
    },
    {
        "ID": "88",
        "Ta'lim turi": "Б",
        "Yonalishkodi": "5330500",
        "Yonalishmutaxassisliknomi": "Компьютерный инжиниринг («Компьютерный инжиниринг», «ИТ-Сервис», «Иинформационная безопасность», «Мультимедийные технологии»)"
    },
    {
        "ID": "89",
        "Ta'lim turi": "Б",
        "Yonalishkodi": "5340200",
        "Yonalishmutaxassisliknomi": "Строительство зданий и сооружений (по видам)"
    },
    {
        "ID": "90",
        "Ta'lim turi": "Б",
        "Yonalishkodi": "5340300",
        "Yonalishmutaxassisliknomi": "Городское строительство и хозяйство"
    },
    {
        "ID": "91",
        "Ta'lim turi": "Б",
        "Yonalishkodi": "5340400",
        "Yonalishmutaxassisliknomi": "Строительство и монтаж инженерных коммуникаций (по видам)"
    },
    {
        "ID": "92",
        "Ta'lim turi": "Б",
        "Yonalishkodi": "5340500",
        "Yonalishmutaxassisliknomi": "Производство строительных материалов, изделий и конструкций"
    },
    {
        "ID": "93",
        "Ta'lim turi": "Б",
        "Yonalishkodi": "5340600",
        "Yonalishmutaxassisliknomi": "Эксплуатация транспортных сооружений (по видам транспортных сооружений)"
    },
    {
        "ID": "94",
        "Ta'lim turi": "Б",
        "Yonalishkodi": "5340700",
        "Yonalishmutaxassisliknomi": "Строительство гидротехники (по видам)"
    },
    {
        "ID": "95",
        "Ta'lim turi": "Б",
        "Yonalishkodi": "5340900",
        "Yonalishmutaxassisliknomi": "Экспертиза недвижимости и ее управление"
    },
    {
        "ID": "96",
        "Ta'lim turi": "Б",
        "Yonalishkodi": "5341200",
        "Yonalishmutaxassisliknomi": "Проектирование и эксплуатация систем водоснабжения и канализации"
    },
    {
        "ID": "97",
        "Ta'lim turi": "Б",
        "Yonalishkodi": "5341800",
        "Yonalishmutaxassisliknomi": "Технология стеновых и отделочных строительных материалов"
    },
    {
        "ID": "98",
        "Ta'lim turi": "Б",
        "Yonalishkodi": "5350100",
        "Yonalishmutaxassisliknomi": "Телекоммуникационные технологии («Телекоммуникации», «Радиовещание», «Мобильные системы»)"
    },
    {
        "ID": "99",
        "Ta'lim turi": "Б",
        "Yonalishkodi": "5350600",
        "Yonalishmutaxassisliknomi": "Библиотечно-информационная деятельность (по видам деятельности)"
    },
    {
        "ID": "100",
        "Ta'lim turi": "Б",
        "Yonalishkodi": "5350700",
        "Yonalishmutaxassisliknomi": "Радиэлектронные устройства и системы (по отраслям)"
    },
    {
        "ID": "101",
        "Ta'lim turi": "Б",
        "Yonalishkodi": "5410100",
        "Yonalishmutaxassisliknomi": "Агрохимия и агропочвоведение"
    },
    {
        "ID": "102",
        "Ta'lim turi": "Б",
        "Yonalishkodi": "5410200",
        "Yonalishmutaxassisliknomi": "Агрономия (по видам сельскохозяйственной продукции)"
    },
    {
        "ID": "103",
        "Ta'lim turi": "Б",
        "Yonalishkodi": "5410300",
        "Yonalishmutaxassisliknomi": "Защита растений (по видам культур)"
    },
    {
        "ID": "104",
        "Ta'lim turi": "Б",
        "Yonalishkodi": "5410500",
        "Yonalishmutaxassisliknomi": "Технология хранения и предварительной переработки сельскохозяйственной продукции (по видам продукции)"
    },
    {
        "ID": "105",
        "Ta'lim turi": "Б",
        "Yonalishkodi": "5410600",
        "Yonalishmutaxassisliknomi": "Зооинженерия (по видам)"
    },
    {
        "ID": "106",
        "Ta'lim turi": "Б",
        "Yonalishkodi": "5410800",
        "Yonalishmutaxassisliknomi": "Лесное хозяйство"
    },
    {
        "ID": "107",
        "Ta'lim turi": "Б",
        "Yonalishkodi": "5410900",
        "Yonalishmutaxassisliknomi": "Шелководство и разведение шелковицы"
    },
    {
        "ID": "108",
        "Ta'lim turi": "Б",
        "Yonalishkodi": "5411000",
        "Yonalishmutaxassisliknomi": "Плодоводство и виноградарство"
    },
    {
        "ID": "109",
        "Ta'lim turi": "Б",
        "Yonalishkodi": "5411100",
        "Yonalishmutaxassisliknomi": "Технология выращивания и переработки лекарственных растений"
    },
    {
        "ID": "110",
        "Ta'lim turi": "Б",
        "Yonalishkodi": "5411200",
        "Yonalishmutaxassisliknomi": "Декоративное садоводство и озеленение"
    },
    {
        "ID": "111",
        "Ta'lim turi": "Б",
        "Yonalishkodi": "5411300",
        "Yonalishmutaxassisliknomi": "Растениеводство (по группам культур)"
    },
    {
        "ID": "112",
        "Ta'lim turi": "Б",
        "Yonalishkodi": "5411500",
        "Yonalishmutaxassisliknomi": "Карантин растений и сельскохозяйственной продукции"
    },
    {
        "ID": "113",
        "Ta'lim turi": "Б",
        "Yonalishkodi": "5411600",
        "Yonalishmutaxassisliknomi": "Овощеводство, бахчеводство и картофелеводство"
    },
    {
        "ID": "114",
        "Ta'lim turi": "Б",
        "Yonalishkodi": "5411700",
        "Yonalishmutaxassisliknomi": "Организация и содержание тепличного хозяйства"
    },
    {
        "ID": "115",
        "Ta'lim turi": "Б",
        "Yonalishkodi": "5430100",
        "Yonalishmutaxassisliknomi": "Механизация сельского хозяйства"
    },
    {
        "ID": "116",
        "Ta'lim turi": "Б",
        "Yonalishkodi": "5430200",
        "Yonalishmutaxassisliknomi": "Электрификация и автоматизация сельского хозяйства"
    },
    {
        "ID": "117",
        "Ta'lim turi": "Б",
        "Yonalishkodi": "5430300",
        "Yonalishmutaxassisliknomi": "Технический сервис в сельском и водном хозяйстве"
    },
    {
        "ID": "118",
        "Ta'lim turi": "Б",
        "Yonalishkodi": "5430500",
        "Yonalishmutaxassisliknomi": "Энергоснабжение в сельском и водном хозяйстве"
    },
    {
        "ID": "119",
        "Ta'lim turi": "Б",
        "Yonalishkodi": "5440100",
        "Yonalishmutaxassisliknomi": "Ветеринарная медицина (по видам деятельности)"
    },
    {
        "ID": "120",
        "Ta'lim turi": "Б",
        "Yonalishkodi": "5440200",
        "Yonalishmutaxassisliknomi": "Ветеринарная фармацевтика"
    },
    {
        "ID": "121",
        "Ta'lim turi": "Б",
        "Yonalishkodi": "5440300",
        "Yonalishmutaxassisliknomi": "Ветеринарная диагностика и лабораторные работы"
    },
    {
        "ID": "122",
        "Ta'lim turi": "Б",
        "Yonalishkodi": "5440400",
        "Yonalishmutaxassisliknomi": "Ветеринарно-санитарная экспертиза"
    },
    {
        "ID": "123",
        "Ta'lim turi": "Б",
        "Yonalishkodi": "5450200",
        "Yonalishmutaxassisliknomi": "Сув хўжалиги ва мелиорация"
    },
    {
        "ID": "124",
        "Ta'lim turi": "Б",
        "Yonalishkodi": "5450300",
        "Yonalishmutaxassisliknomi": "Водное хозяйство и механизация мелиоративных работ"
    },
    {
        "ID": "125",
        "Ta'lim turi": "Б",
        "Yonalishkodi": "5450400",
        "Yonalishmutaxassisliknomi": "Использование гидротехнических сооружений и насосных станций"
    },
    {
        "ID": "126",
        "Ta'lim turi": "Б",
        "Yonalishkodi": "5450600",
        "Yonalishmutaxassisliknomi": "Гидроэнергетические объекты в ирригационных системах"
    },
    {
        "ID": "127",
        "Ta'lim turi": "Б",
        "Yonalishkodi": "5520100",
        "Yonalishmutaxassisliknomi": "Социальная работа (по различным сферам деятельности)"
    },
    {
        "ID": "128",
        "Ta'lim turi": "Б",
        "Yonalishkodi": "5610200",
        "Yonalishmutaxassisliknomi": "Организация и управление гостиничным бизнесом"
    },
    {
        "ID": "129",
        "Ta'lim turi": "Б",
        "Yonalishkodi": "5610300",
        "Yonalishmutaxassisliknomi": "Туризм (по направлениям деятельности)"
    },
    {
        "ID": "130",
        "Ta'lim turi": "Б",
        "Yonalishkodi": "5610500",
        "Yonalishmutaxassisliknomi": "Спортивная деятельность (по видам деятельности)"
    },
    {
        "ID": "131",
        "Ta'lim turi": "Б",
        "Yonalishkodi": "5611400",
        "Yonalishmutaxassisliknomi": "Сервис организации питания населения и туристов"
    },
    {
        "ID": "132",
        "Ta'lim turi": "Б",
        "Yonalishkodi": "5620100",
        "Yonalishmutaxassisliknomi": "Организация перевозок и транспортная логистика (по видам транспорта)"
    },
    {
        "ID": "133",
        "Ta'lim turi": "Б",
        "Yonalishkodi": "5620200",
        "Yonalishmutaxassisliknomi": "Управление воздушным движением"
    },
    {
        "ID": "134",
        "Ta'lim turi": "Б",
        "Yonalishkodi": "5620400",
        "Yonalishmutaxassisliknomi": "Организация дорожного движения"
    },
    {
        "ID": "135",
        "Ta'lim turi": "Б",
        "Yonalishkodi": "5630100",
        "Yonalishmutaxassisliknomi": "Экология и охрана окружающей среды (по отраслям и сферам)"
    },
    {
        "ID": "136",
        "Ta'lim turi": "Б",
        "Yonalishkodi": "5640200",
        "Yonalishmutaxassisliknomi": "Охрана труда и техническая безопасность"
    }
]